simulation/qsim/Lab6.msim.vcd
$comment
	File created using the following command:
		vcd file Lab6.msim.vcd -direction
$end
$date
	Sun Jun 26 20:16:33 2022
$end
$version
	ModelSim Version 10.1d
$end
$timescale
	1ps
$end
$scope module ssegmodified_vlg_vec_tst $end
$var reg 4 ! bcd [3:0] $end
$var reg 1 " E $end
$var wire 1 # leds [0] $end
$var wire 1 $ leds [1] $end
$var wire 1 % leds [2] $end
$var wire 1 & leds [3] $end
$var wire 1 ' leds [4] $end
$var wire 1 ( leds [5] $end
$var wire 1 ) leds [6] $end
$var wire 1 * yesorno [0] $end
$var wire 1 + yesorno [1] $end
$var wire 1 , yesorno [2] $end
$var wire 1 - yesorno [3] $end
$var wire 1 . yesorno [4] $end
$var wire 1 / yesorno [5] $end
$var wire 1 0 yesorno [6] $end
$var wire 1 1 sampler $end
$scope module i1 $end
$var wire 1 2 gnd $end
$var wire 1 3 vcc $end
$var wire 1 4 unknown $end
$var tri1 1 5 devclrn $end
$var tri1 1 6 devpor $end
$var tri1 1 7 devoe $end
$var wire 1 8 Mux6~0_combout $end
$var wire 1 9 Mux5~0_combout $end
$var wire 1 : Mux4~0_combout $end
$var wire 1 ; Mux3~0_combout $end
$var wire 1 < Mux2~0_combout $end
$var wire 1 = Mux1~0_combout $end
$var wire 1 > Mux0~0_combout $end
$var wire 1 ? E~combout $end
$var wire 1 @ bcd~combout [3] $end
$var wire 1 A bcd~combout [2] $end
$var wire 1 B bcd~combout [1] $end
$var wire 1 C bcd~combout [0] $end
$upscope $end
$upscope $end
$enddefinitions $end
#0
$dumpvars
b0 !
0"
0)
1(
1'
1&
1%
1$
1#
10
0/
1.
0-
1,
0+
0*
x1
02
13
x4
15
16
17
08
09
0:
0;
0<
0=
0>
0?
0C
0B
0A
0@
$end
#40000
b1 !
1C
01
1>
1;
1:
19
0#
0&
0'
0(
#80000
b11 !
b10 !
0C
1B
11
0>
1<
0;
0:
18
1)
1#
0%
1&
1'
#120000
b11 !
1C
01
0<
1:
1%
0'
#160000
b111 !
1"
b101 !
b100 !
0C
0B
1A
1?
11
1>
1;
09
1+
1-
1/
0.
0#
0&
1(
#200000
b101 !
1C
01
0>
1=
0;
1#
0$
1&
#240000
b111 !
b110 !
0C
1B
11
0:
1'
#280000
b111 !
1C
01
0=
1;
1:
19
08
0)
1$
0&
0'
0(
#320000
b1111 !
b1011 !
0"
b1001 !
b1000 !
0C
0B
0A
1@
0?
11
0;
0:
09
18
0+
0-
0/
1.
1)
1&
1'
1(
#360000
b1001 !
1C
01
1:
0'
#400000
b1011 !
b1010 !
0C
1B
11
1;
0:
0&
1'
#440000
b1011 !
1C
01
1>
1=
0;
0#
0$
1&
#480000
b1111 !
1"
b1101 !
b1100 !
0C
0B
1A
1?
11
0>
1<
08
1+
1-
1/
0.
0)
1#
0%
#520000
b1101 !
1C
01
1>
0=
0<
19
18
1)
0#
1$
1%
0(
#560000
b1111 !
b1110 !
0C
1B
11
0>
1=
1<
09
1#
0$
0%
1(
#600000
b1111 !
1C
01
1;
0&
#640000
b111 !
b11 !
0"
b1 !
b0 !
0C
0B
0A
0@
0?
11
0=
0<
0;
08
0+
0-
0/
1.
0)
1$
1%
1&
